<?xml version="1.0" encoding="UTF-8"?>
<svg width="93px" height="52px" viewBox="0 0 93 52" version="1.1" xmlns="http://www.w3.org/2000/svg" xmlns:xlink="http://www.w3.org/1999/xlink">
    <!-- Generator: Sketch 42 (36781) - http://www.bohemiancoding.com/sketch -->
    <title>usuario</title>
    <desc>Created with Sketch.</desc>
    <defs></defs>
    <g id="Page-1" stroke="none" stroke-width="1" fill="none" fill-rule="evenodd">
        <g id="como-participar" transform="translate(-474.000000, -416.000000)">
            <g id="usuario" transform="translate(474.000000, 416.000000)">
                <path d="M12.9061224,24.1457395 L12.9061224,21.4039213 C12.1469388,20.1748304 11.7673469,18.8511941 11.577551,17.6221032 C11.1979592,17.6221032 10.6285714,16.960285 9.96428571,14.880285 C9.11020408,11.9493759 10.0591837,11.5711941 10.7234694,11.6657395 C10.1540816,10.1530123 10.1540816,8.64028498 10.5336735,7.22210316 C10.9132653,5.61483043 11.7673469,4.29119407 12.8112245,3.25119407 C13.4755102,2.58937589 14.1397959,2.02210316 14.8989796,1.54937589 C15.4683673,1.17119407 16.227551,0.793012252 16.8918367,0.509375889 L16.8918367,0.509375889 C17.4612245,0.32028498 18.1255102,0.225739525 18.694898,0.13119407 C20.6877551,-0.0578968386 22.2061224,0.414830434 23.344898,1.07664862 C24.9581633,2.02210316 25.622449,3.15664862 25.622449,3.15664862 C25.622449,3.15664862 29.7030612,3.44028498 27.9,12.0439213 C28.4693878,12.2330123 28.8489796,12.9893759 28.1846939,15.2584668 C27.4255102,18.000285 26.6663265,18.1893759 26.2867347,17.9057395 C26.0969388,18.8511941 25.8122449,19.8911941 25.3377551,20.9311941 L25.3377551,24.1457395 C25.3377551,24.240285 25.4326531,24.4293759 25.527551,24.4293759 C26.2867347,24.8075577 29.1336735,26.2257395 32.3602041,28.400285 C29.7979592,29.9130123 26.7612245,31.8984668 23.7244898,34.3566486 C21.9214286,35.7748304 20.877551,37.9493759 20.877551,40.3130123 L20.877551,43.7166486 C14.6142857,44.000285 8.35102041,42.960285 2.46734694,40.6911941 L0,39.7457395 L0,34.4511941 C0,33.3166486 0.474489796,32.2766486 1.32857143,31.520285 C6.16836735,27.5493759 11.3877551,24.9021032 12.4316327,24.4293759 C12.8112245,24.3348304 12.9061224,24.240285 12.9061224,24.1457395 Z" id="Path" fill="#97152E"></path>
                <path d="M90.5326531,40.6911941 L93,39.7457395 L93,34.4511941 C93,33.3166486 92.5255102,32.2766486 91.6714286,31.520285 C86.8316327,27.5493759 81.6122449,24.9021032 80.5683673,24.4293759 C80.4734694,24.3348304 80.3785714,24.240285 80.3785714,24.1457395 L80.3785714,20.9311941 C80.8530612,19.9857395 81.1377551,18.8511941 81.327551,17.9057395 C81.8020408,18.1893759 82.4663265,18.000285 83.2255102,15.2584668 C83.8897959,12.9893759 83.5102041,12.2330123 82.9408163,12.0439213 C84.7438776,3.44028498 80.6632653,3.15664862 80.6632653,3.15664862 C80.6632653,3.15664862 79.9989796,2.02210316 78.2908163,1.07664862 C77.1520408,0.414830434 75.6336735,-0.0578968386 73.6408163,0.13119407 C72.9765306,0.13119407 72.4071429,0.32028498 71.8377551,0.509375889 C71.0785714,0.793012252 70.4142857,1.07664862 69.844898,1.54937589 C69.0857143,2.02210316 68.4214286,2.58937589 67.7571429,3.25119407 C66.8081633,4.29119407 65.8591837,5.52028498 65.4795918,7.22210316 C65.1,8.64028498 65.1,10.0584668 65.6693878,11.6657395 C64.9102041,11.5711941 64.0561224,12.0439213 64.9102041,14.880285 C65.4795918,16.960285 66.0489796,17.6221032 66.5234694,17.6221032 C66.7132653,18.8511941 67.0928571,20.1748304 67.8520408,21.4039213 L67.8520408,24.1457395 C67.8520408,24.240285 67.7571429,24.4293759 67.6622449,24.4293759 C66.9030612,24.8075577 64.0561224,26.2257395 60.8295918,28.400285 C63.2969388,29.9130123 66.4285714,31.8984668 69.4653061,34.3566486 C71.2683673,35.7748304 72.3122449,37.9493759 72.3122449,40.3130123 L72.3122449,43.7166486 C78.2908163,44.000285 84.5540816,42.960285 90.5326531,40.6911941 Z" id="Path" fill="#97152E"></path>
                <path d="M68.8010204,46.5530123 L68.8010204,40.3130123 C68.8010204,38.9893759 68.2316327,37.760285 67.1877551,36.9093759 C61.4938776,32.2766486 55.4204082,29.1566486 54.1867347,28.5893759 C54.0918367,28.4948304 53.9969388,28.400285 53.9969388,28.2111941 L53.9969388,24.4293759 C54.5663265,23.2948304 54.8510204,22.0657395 55.1357143,20.9311941 C55.6102041,21.3093759 56.4642857,21.120285 57.4132653,17.8111941 C58.172449,15.1639213 57.6979592,14.3130123 57.0336735,14.0293759 C59.1214286,4.00755771 54.2816327,3.62937589 54.2816327,3.62937589 C54.2816327,3.62937589 53.522449,2.21119407 51.6244898,1.17119407 C50.2959184,0.414830434 48.5877551,-0.152442293 46.2153061,0.0366486159 C45.4561224,0.0366486159 44.6969388,0.225739525 44.0326531,0.414830434 L44.0326531,0.414830434 C43.1785714,0.698466798 42.4193878,1.17119407 41.6602041,1.64392134 C40.8061224,2.21119407 39.9520408,2.87301225 39.1928571,3.62937589 C38.0540816,4.8584668 37.0102041,6.37119407 36.5357143,8.26210316 C36.0612245,9.86937589 36.1561224,11.6657395 36.7255102,13.4621032 C35.8714286,13.3675577 34.827551,13.840285 35.7765306,17.2439213 C36.4408163,19.7021032 37.105102,20.4584668 37.6744898,20.4584668 C37.8642857,21.8766486 38.3387755,23.4839213 39.1928571,24.9021032 L39.1928571,28.1166486 C39.1928571,28.3057395 39.0979592,28.400285 39.0030612,28.4948304 C37.7693878,29.0621032 31.6959184,32.1821032 26.0020408,36.8148304 C24.9581633,37.6657395 24.3887755,38.8948304 24.3887755,40.2184668 L24.3887755,46.4584668 L27.2357143,47.5930123 C39.6673469,52.4148304 53.427551,52.4148304 65.8591837,47.5930123 L68.8010204,46.5530123 Z" id="Path" fill="#DE1F44"></path>
            </g>
        </g>
    </g>
</svg>